{
  "version": 1,
  "license": "CC-BY-SA-3.0",
  "copyright": "Taken from tgstation at commit https://github.com/tgstation/tgstation/commit/c838ba21dae97db345e0113f99596decd1d66039",
  "size": {
    "x": 32,
    "y": 32
  },
  "states": [
    {
      "name": "icon"
    },
    {
      "name": "equipped-SOCKS",
      "directions": 4
    },
    {
      "name": "equipped-SOCKS-digi",
      "directions": 4
    }
  ]
}
